CONTENTS OF THIS FILE
---------------------

  * Introduction
  * Installation
  * For Developers
  * Maintainers

INTRODUCTION
------------


INSTALLATION
------------


FOR DEVELOPERS
--------------


MAINTAINERS
-----------
- nackersa (Drew Nackers)
- jay.dansand (Jay Dansand)
